\relax 
\providecommand\hyper@newdestlabel[2]{}
\providecommand\HyperFirstAtBeginDocument{\AtBeginDocument}
\HyperFirstAtBeginDocument{\ifx\hyper@anchor\@undefined
\global\let\oldcontentsline\contentsline
\gdef\contentsline#1#2#3#4{\oldcontentsline{#1}{#2}{#3}}
\global\let\oldnewlabel\newlabel
\gdef\newlabel#1#2{\newlabelxx{#1}#2}
\gdef\newlabelxx#1#2#3#4#5#6{\oldnewlabel{#1}{{#2}{#3}}}
\AtEndDocument{\ifx\hyper@anchor\@undefined
\let\contentsline\oldcontentsline
\let\newlabel\oldnewlabel
\fi}
\fi}
\global\let\hyper@last\relax 
\gdef\HyperFirstAtBeginDocument#1{#1}
\providecommand\HyField@AuxAddToFields[1]{}
\providecommand\HyField@AuxAddToCoFields[2]{}
\providecommand\pbs@newkey[2]{}
\providecommand\pbs@seq@push@cx[2]{}
\providecommand\pbs@at@end@dvi@check{}
\pbs@at@end@dvi@check
\providecommand\mix@newkey[2]{}
\pbs@newkey{pbs@last@page}{1}
\@writefile{nav}{\headcommand {\slideentry {0}{0}{1}{1/1}{}{0}}}
\@writefile{nav}{\headcommand {\beamer@framepages {1}{1}}}
\pbs@newkey{pbs@last@page}{2}
\pbs@newkey{pbs@last@page}{3}
\pbs@newkey{pbs@last@page}{4}
\@writefile{nav}{\headcommand {\slideentry {0}{0}{2}{2/4}{}{0}}}
\@writefile{nav}{\headcommand {\beamer@framepages {2}{4}}}
\pbs@newkey{pbs@last@page}{5}
\pbs@newkey{pbs@last@page}{6}
\@writefile{nav}{\headcommand {\slideentry {0}{0}{3}{5/6}{}{0}}}
\@writefile{nav}{\headcommand {\beamer@framepages {5}{6}}}
\pbs@newkey{pbs@last@page}{7}
\pbs@newkey{pbs@last@page}{8}
\pbs@newkey{pbs@last@page}{9}
\@writefile{nav}{\headcommand {\slideentry {0}{0}{4}{7/9}{}{0}}}
\@writefile{nav}{\headcommand {\beamer@framepages {7}{9}}}
\pbs@newkey{pbs@last@page}{10}
\pbs@newkey{pbs@last@page}{11}
\@writefile{nav}{\headcommand {\slideentry {0}{0}{5}{10/11}{}{0}}}
\@writefile{nav}{\headcommand {\beamer@framepages {10}{11}}}
\pbs@newkey{pbs@last@page}{12}
\pbs@newkey{pbs@last@page}{13}
\pbs@newkey{pbs@last@page}{14}
\pbs@newkey{pbs@last@page}{15}
\@writefile{nav}{\headcommand {\slideentry {0}{0}{6}{12/15}{}{0}}}
\@writefile{nav}{\headcommand {\beamer@framepages {12}{15}}}
\pbs@newkey{pbs@last@page}{16}
\@writefile{nav}{\headcommand {\slideentry {0}{0}{7}{16/16}{}{0}}}
\@writefile{nav}{\headcommand {\beamer@framepages {16}{16}}}
\citation{ferziger2019}
\pbs@newkey{pbs@last@page}{17}
\citation{ferziger2019}
\pbs@newkey{pbs@last@page}{18}
\citation{ferziger2019}
\pbs@newkey{pbs@last@page}{19}
\citation{ferziger2019}
\pbs@newkey{pbs@last@page}{20}
\citation{ferziger2019}
\pbs@newkey{pbs@last@page}{21}
\citation{ferziger2019}
\pbs@newkey{pbs@last@page}{22}
\@writefile{nav}{\headcommand {\slideentry {0}{0}{8}{17/22}{}{0}}}
\@writefile{nav}{\headcommand {\beamer@framepages {17}{22}}}
\pbs@newkey{pbs@last@page}{23}
\pbs@newkey{pbs@last@page}{24}
\pbs@newkey{pbs@last@page}{25}
\pbs@newkey{pbs@last@page}{26}
\pbs@newkey{pbs@last@page}{27}
\@writefile{nav}{\headcommand {\slideentry {0}{0}{9}{23/27}{}{0}}}
\@writefile{nav}{\headcommand {\beamer@framepages {23}{27}}}
\citation{logan2013applied}
\pbs@newkey{pbs@last@page}{28}
\@writefile{snm}{\beamer@slide {r-tilde}{28}}
\newlabel{r-tilde}{{10}{28}{}{Doc-Start}{}}
\citation{logan2013applied}
\pbs@newkey{pbs@last@page}{29}
\citation{logan2013applied}
\pbs@newkey{pbs@last@page}{30}
\citation{logan2013applied}
\pbs@newkey{pbs@last@page}{31}
\@writefile{nav}{\headcommand {\slideentry {0}{0}{10}{28/31}{}{0}}}
\@writefile{nav}{\headcommand {\beamer@framepages {28}{31}}}
\pbs@newkey{pbs@last@page}{32}
\@writefile{snm}{\beamer@slide {eq:v}{32}}
\newlabel{eq:v}{{14}{32}{}{Doc-Start}{}}
\@writefile{nav}{\headcommand {\slideentry {0}{0}{11}{32/32}{}{0}}}
\@writefile{nav}{\headcommand {\beamer@framepages {32}{32}}}
\pbs@newkey{pbs@last@page}{33}
\pbs@newkey{pbs@last@page}{34}
\pbs@newkey{pbs@last@page}{35}
\@writefile{nav}{\headcommand {\slideentry {0}{0}{12}{33/35}{}{0}}}
\@writefile{nav}{\headcommand {\beamer@framepages {33}{35}}}
\bibcite{ferziger2019}{\hyperlink {beamerbibferziger2019}{1}}
\bibcite{logan2013applied}{\hyperlink {beamerbiblogan2013applied}{2}}
\pbs@newkey{pbs@last@page}{36}
\@writefile{nav}{\headcommand {\beamer@partpages {1}{36}}}
\@writefile{nav}{\headcommand {\beamer@subsectionpages {1}{36}}}
\@writefile{nav}{\headcommand {\beamer@sectionpages {1}{36}}}
\@writefile{nav}{\headcommand {\beamer@documentpages {36}}}
\@writefile{nav}{\headcommand {\gdef \inserttotalframenumber {12}}}
