\relax 
\providecommand\hyper@newdestlabel[2]{}
\providecommand\HyperFirstAtBeginDocument{\AtBeginDocument}
\HyperFirstAtBeginDocument{\ifx\hyper@anchor\@undefined
\global\let\oldcontentsline\contentsline
\gdef\contentsline#1#2#3#4{\oldcontentsline{#1}{#2}{#3}}
\global\let\oldnewlabel\newlabel
\gdef\newlabel#1#2{\newlabelxx{#1}#2}
\gdef\newlabelxx#1#2#3#4#5#6{\oldnewlabel{#1}{{#2}{#3}}}
\AtEndDocument{\ifx\hyper@anchor\@undefined
\let\contentsline\oldcontentsline
\let\newlabel\oldnewlabel
\fi}
\fi}
\global\let\hyper@last\relax 
\gdef\HyperFirstAtBeginDocument#1{#1}
\providecommand\HyField@AuxAddToFields[1]{}
\providecommand\HyField@AuxAddToCoFields[2]{}
\@writefile{nav}{\headcommand {\slideentry {0}{0}{1}{1/1}{}{0}}}
\@writefile{nav}{\headcommand {\beamer@framepages {1}{1}}}
\@writefile{nav}{\headcommand {\slideentry {0}{0}{2}{2/6}{}{0}}}
\@writefile{nav}{\headcommand {\beamer@framepages {2}{6}}}
\newlabel{fig:stornorrfors}{{1}{7}{}{Doc-Start}{}}
\@writefile{snm}{\beamer@slide {fig:stornorrfors}{7}}
\newlabel{fig:umeå}{{2}{7}{}{Doc-Start}{}}
\@writefile{snm}{\beamer@slide {fig:umeå}{7}}
\@writefile{nav}{\headcommand {\slideentry {0}{0}{3}{7/7}{}{0}}}
\@writefile{nav}{\headcommand {\beamer@framepages {7}{7}}}
\@writefile{nav}{\headcommand {\slideentry {0}{0}{4}{8/9}{}{0}}}
\@writefile{nav}{\headcommand {\beamer@framepages {8}{9}}}
\newlabel{fig:1-4}{{3}{10}{}{Doc-Start}{}}
\@writefile{snm}{\beamer@slide {fig:1-4}{10}}
\newlabel{fig:5-8}{{4}{10}{}{Doc-Start}{}}
\@writefile{snm}{\beamer@slide {fig:5-8}{10}}
\newlabel{fig:validation-points}{{5}{10}{}{Doc-Start}{}}
\@writefile{snm}{\beamer@slide {fig:validation-points}{10}}
\@writefile{nav}{\headcommand {\slideentry {0}{0}{5}{10/10}{}{0}}}
\@writefile{nav}{\headcommand {\beamer@framepages {10}{10}}}
\@writefile{nav}{\headcommand {\slideentry {0}{0}{6}{11/12}{}{0}}}
\@writefile{nav}{\headcommand {\beamer@framepages {11}{12}}}
\newlabel{fig:response}{{6}{13}{}{Doc-Start}{}}
\@writefile{snm}{\beamer@slide {fig:response}{13}}
\@writefile{nav}{\headcommand {\slideentry {0}{0}{7}{13/13}{}{0}}}
\@writefile{nav}{\headcommand {\beamer@framepages {13}{13}}}
\newlabel{fig:transient-area}{{7}{14}{}{Doc-Start}{}}
\@writefile{snm}{\beamer@slide {fig:transient-area}{14}}
\@writefile{nav}{\headcommand {\slideentry {0}{0}{8}{14/14}{}{0}}}
\@writefile{nav}{\headcommand {\beamer@framepages {14}{14}}}
\newlabel{fig:response-comparison}{{8}{15}{}{Doc-Start}{}}
\@writefile{snm}{\beamer@slide {fig:response-comparison}{15}}
\@writefile{nav}{\headcommand {\slideentry {0}{0}{9}{15/15}{}{0}}}
\@writefile{nav}{\headcommand {\beamer@framepages {15}{15}}}
\@writefile{nav}{\headcommand {\slideentry {0}{0}{10}{16/17}{}{0}}}
\@writefile{nav}{\headcommand {\beamer@framepages {16}{17}}}
\newlabel{fig:validation}{{9}{18}{}{Doc-Start}{}}
\@writefile{snm}{\beamer@slide {fig:validation}{18}}
\@writefile{nav}{\headcommand {\slideentry {0}{0}{11}{18/18}{}{0}}}
\@writefile{nav}{\headcommand {\beamer@framepages {18}{18}}}
\newlabel{fig:simulated-hysteresis}{{10}{19}{}{Doc-Start}{}}
\@writefile{snm}{\beamer@slide {fig:simulated-hysteresis}{19}}
\newlabel{fig:measured-hysteresis}{{11}{19}{}{Doc-Start}{}}
\@writefile{snm}{\beamer@slide {fig:measured-hysteresis}{19}}
\@writefile{nav}{\headcommand {\slideentry {0}{0}{12}{19/19}{}{0}}}
\@writefile{nav}{\headcommand {\beamer@framepages {19}{19}}}
\newlabel{fig:hydrographs}{{12}{20}{}{Doc-Start}{}}
\@writefile{snm}{\beamer@slide {fig:hydrographs}{20}}
\@writefile{nav}{\headcommand {\slideentry {0}{0}{13}{20/20}{}{0}}}
\@writefile{nav}{\headcommand {\beamer@framepages {20}{20}}}
\newlabel{fig:1}{{13}{21}{}{Doc-Start}{}}
\@writefile{snm}{\beamer@slide {fig:1}{21}}
\newlabel{fig:2}{{14}{21}{}{Doc-Start}{}}
\@writefile{snm}{\beamer@slide {fig:2}{21}}
\@writefile{nav}{\headcommand {\slideentry {0}{0}{14}{21/21}{}{0}}}
\@writefile{nav}{\headcommand {\beamer@framepages {21}{21}}}
\newlabel{fig:3}{{15}{22}{}{Doc-Start}{}}
\@writefile{snm}{\beamer@slide {fig:3}{22}}
\newlabel{fig:4}{{16}{22}{}{Doc-Start}{}}
\@writefile{snm}{\beamer@slide {fig:4}{22}}
\@writefile{nav}{\headcommand {\slideentry {0}{0}{15}{22/22}{}{0}}}
\@writefile{nav}{\headcommand {\beamer@framepages {22}{22}}}
\newlabel{fig:perpetual-dynamics}{{17}{23}{}{Doc-Start}{}}
\@writefile{snm}{\beamer@slide {fig:perpetual-dynamics}{23}}
\@writefile{nav}{\headcommand {\slideentry {0}{0}{16}{23/23}{}{0}}}
\@writefile{nav}{\headcommand {\beamer@framepages {23}{23}}}
\newlabel{fig:wetted-area}{{18}{24}{}{Doc-Start}{}}
\@writefile{snm}{\beamer@slide {fig:wetted-area}{24}}
\@writefile{nav}{\headcommand {\slideentry {0}{0}{17}{24/24}{}{0}}}
\@writefile{nav}{\headcommand {\beamer@framepages {24}{24}}}
\@writefile{nav}{\headcommand {\slideentry {0}{0}{18}{25/25}{}{0}}}
\@writefile{nav}{\headcommand {\beamer@framepages {25}{25}}}
\@writefile{nav}{\headcommand {\slideentry {0}{0}{19}{26/33}{}{0}}}
\@writefile{nav}{\headcommand {\beamer@framepages {26}{33}}}
\@writefile{nav}{\headcommand {\beamer@partpages {1}{33}}}
\@writefile{nav}{\headcommand {\beamer@subsectionpages {1}{33}}}
\@writefile{nav}{\headcommand {\beamer@sectionpages {1}{33}}}
\@writefile{nav}{\headcommand {\beamer@documentpages {33}}}
\@writefile{nav}{\headcommand {\gdef \inserttotalframenumber {19}}}
