\relax 
\providecommand*\new@tpo@label[2]{}
\@writefile{toc}{\contentsline {section}{\numberline {1}Problem Statement}{1}}
\@writefile{toc}{\contentsline {section}{\numberline {2}Iterative Methods}{1}}
\@writefile{toc}{\contentsline {subsection}{\numberline {2.1}Matrix Properties of UDS and CDS}{1}}
\citation{ferziger2019}
\@writefile{lot}{\contentsline {table}{\numberline {1}{\ignorespaces Matrix properties for UDS and CDS.}}{2}}
\@writefile{toc}{\contentsline {subsection}{\numberline {2.2}Conjugate Gradient Method}{2}}
\@writefile{toc}{\contentsline {subsection}{\numberline {2.3}Chosen Iterative Methods}{2}}
\@writefile{toc}{\contentsline {section}{\numberline {3}Results}{3}}
\@writefile{toc}{\contentsline {subsection}{\numberline {3.1}Mesh Dependence}{3}}
\@writefile{lof}{\contentsline {figure}{\numberline {1}{\ignorespaces Comparison between algorithms for a 8x8 mesh.}}{3}}
\@writefile{lof}{\contentsline {figure}{\numberline {2}{\ignorespaces Comparison between algorithms for a 16x16 mesh.}}{3}}
\@writefile{lof}{\contentsline {figure}{\numberline {3}{\ignorespaces Comparison between algorithms for a 32x32 mesh.}}{4}}
\@writefile{lof}{\contentsline {figure}{\numberline {4}{\ignorespaces Comparison between algorithms for a 64x64 mesh.}}{4}}
\@writefile{toc}{\contentsline {subsection}{\numberline {3.2}Execution Time}{5}}
\@writefile{lot}{\contentsline {table}{\numberline {2}{\ignorespaces Execution time for different meshes and algorithms. Time in seconds.}}{5}}
\@writefile{toc}{\contentsline {section}{\numberline {4}Python Code}{5}}
\@writefile{lol}{\contentsline {lstlisting}{/home/anton/phd\textendash related\textendash code/cfd\textunderscore course/assignment\textunderscore 3/assignment\textunderscore 3.py}{5}}
\bibcite{ferziger2019}{1}
