\relax 
\@writefile{toc}{\contentsline {chapter}{\numberline {1}Investigating damping properties in a bypass river}{1}}
\@writefile{toc}{\contentsline {section}{\numberline {1}Introduction}{1}}
\@writefile{toc}{\contentsline {subsection}{\numberline {\rm  1.1}Background}{1}}
\@writefile{toc}{\contentsline {subsection}{\numberline {\rm  1.2}Objectives of this study}{1}}
\@writefile{lof}{\contentsline {figure}{\numberline {1} {\ignorespaces Area in proximity of the Stornorrfors hydropower plant and Stornorrfors' location in Sweden.}}{2}}
\newlabel{fig:stornorrfors-area}{{1}{2}}
\@writefile{toc}{\contentsline {subsection}{\numberline {\rm  1.3}Study reach}{2}}
\@writefile{toc}{\contentsline {subsection}{\numberline {\rm  1.4}Previous work}{2}}
\@writefile{toc}{\contentsline {section}{\numberline {2}Method}{2}}
\@writefile{toc}{\contentsline {subsection}{\numberline {\rm  2.1}Study cases}{2}}
\@writefile{lof}{\contentsline {figure}{\numberline {2} {\ignorespaces Manning coefficient distribution (left) and Bathymetry obtained from drone photogrammetry measurements (right).}}{3}}
\newlabel{fig:geometry}{{2}{3}}
\@writefile{toc}{\contentsline {subsection}{\numberline {\rm  2.2}Numerical modeling}{3}}
\@writefile{toc}{\contentsline {subsubsection}{\numberline {{\rm  2.2.1}}Model setup}{3}}
\@writefile{lot}{\contentsline {table}{\numberline {1} {\ignorespaces Mesh statistics for the mesh used in the Delft3D model.}}{4}}
\newlabel{tab:mesh}{{{\rm  2.2.1}}{4}}
\@writefile{toc}{\contentsline {section}{\numberline {3}Results}{4}}
\@writefile{toc}{\contentsline {subsection}{\numberline {\rm  3.1}Water level as a function of time}{4}}
\@writefile{toc}{\contentsline {subsubsection}{\numberline {{\rm  3.1.1}}Varying gate closing time}{4}}
\@writefile{lof}{\contentsline {figure}{\numberline {3} {\ignorespaces Normalized water level as a function of time in the different study cases. Downstream coordinate $M$ on the x-axes and time since change in discharge $t$ on the y-axes.}}{4}}
\newlabel{fig:transient-response}{{3}{4}}
\@writefile{lof}{\contentsline {figure}{\numberline {4} {\ignorespaces Wetted area transient response for the different study cases.}}{5}}
\newlabel{fig:transient-area}{{4}{5}}
\@writefile{lof}{\contentsline {figure}{\numberline {5} {\ignorespaces $WSE_{norm}$ comparison between uniform Manning and Manning distribution.}}{5}}
\newlabel{fig:difference-response}{{5}{5}}
\@writefile{toc}{\contentsline {subsubsection}{\numberline {{\rm  3.1.2}}Varying Manning coefficient}{5}}
\@writefile{toc}{\contentsline {section}{\numberline {4}Discussion and conclusions}{5}}
\bibcite{andersson2018}{1}
\bibcite{andersson2012}{2}
\bibcite{burman2019}{3}
\bibcite{deltares}{4}
\bibcite{hellstrom2016}{5}
\bibcite{halleraker2003factors}{6}
\@writefile{lof}{\contentsline {figure}{\numberline {6} {\ignorespaces Wetted area comparison for uniform Manning and Manning distribution.}}{6}}
\newlabel{fig:comparison-area}{{6}{6}}
\@writefile{toc}{\contentsline {section}{\numberline {5}Acknowledgments}{6}}
\bibcite{juarez}{7}
\bibcite{hydroflex}{8}
\bibcite{regeringen}{9}
\bibcite{vattenfall}{10}
