\relax 
\providecommand\hyper@newdestlabel[2]{}
\providecommand\HyperFirstAtBeginDocument{\AtBeginDocument}
\HyperFirstAtBeginDocument{\ifx\hyper@anchor\@undefined
\global\let\oldcontentsline\contentsline
\gdef\contentsline#1#2#3#4{\oldcontentsline{#1}{#2}{#3}}
\global\let\oldnewlabel\newlabel
\gdef\newlabel#1#2{\newlabelxx{#1}#2}
\gdef\newlabelxx#1#2#3#4#5#6{\oldnewlabel{#1}{{#2}{#3}}}
\AtEndDocument{\ifx\hyper@anchor\@undefined
\let\contentsline\oldcontentsline
\let\newlabel\oldnewlabel
\fi}
\fi}
\global\let\hyper@last\relax 
\gdef\HyperFirstAtBeginDocument#1{#1}
\providecommand\HyField@AuxAddToFields[1]{}
\providecommand\HyField@AuxAddToCoFields[2]{}
\@writefile{nav}{\headcommand {\slideentry {0}{0}{1}{1/1}{}{0}}}
\@writefile{nav}{\headcommand {\beamer@framepages {1}{1}}}
\@writefile{nav}{\headcommand {\slideentry {0}{0}{2}{2/2}{}{0}}}
\@writefile{nav}{\headcommand {\beamer@framepages {2}{2}}}
\newlabel{fig:hydroflex-web}{{1}{3}{}{Doc-Start}{}}
\@writefile{snm}{\beamer@slide {fig:hydroflex-web}{3}}
\@writefile{nav}{\headcommand {\slideentry {0}{0}{3}{3/3}{}{0}}}
\@writefile{nav}{\headcommand {\beamer@framepages {3}{3}}}
\@writefile{nav}{\headcommand {\slideentry {0}{0}{4}{4/12}{}{0}}}
\@writefile{nav}{\headcommand {\beamer@framepages {4}{12}}}
\@writefile{nav}{\headcommand {\slideentry {0}{0}{5}{13/19}{}{0}}}
\@writefile{nav}{\headcommand {\beamer@framepages {13}{19}}}
\newlabel{fig:shallow}{{2}{20}{}{Doc-Start}{}}
\@writefile{snm}{\beamer@slide {fig:shallow}{20}}
\@writefile{nav}{\headcommand {\slideentry {0}{0}{6}{20/20}{}{0}}}
\@writefile{nav}{\headcommand {\beamer@framepages {20}{20}}}
\citation{augier2019shallow}
\@writefile{nav}{\headcommand {\slideentry {0}{0}{7}{21/21}{}{0}}}
\@writefile{nav}{\headcommand {\beamer@framepages {21}{21}}}
\newlabel{fig:stornorrfors}{{3}{22}{}{Doc-Start}{}}
\@writefile{snm}{\beamer@slide {fig:stornorrfors}{22}}
\newlabel{fig:umeå}{{4}{22}{}{Doc-Start}{}}
\@writefile{snm}{\beamer@slide {fig:umeå}{22}}
\@writefile{nav}{\headcommand {\slideentry {0}{0}{8}{22/22}{}{0}}}
\@writefile{nav}{\headcommand {\beamer@framepages {22}{22}}}
\newlabel{fig:panama-city}{{5}{23}{}{Doc-Start}{}}
\@writefile{snm}{\beamer@slide {fig:panama-city}{23}}
\newlabel{fig:panama}{{6}{23}{}{Doc-Start}{}}
\@writefile{snm}{\beamer@slide {fig:panama}{23}}
\@writefile{nav}{\headcommand {\slideentry {0}{0}{9}{23/23}{}{0}}}
\@writefile{nav}{\headcommand {\beamer@framepages {23}{23}}}
\newlabel{fig:1-4}{{7}{24}{}{Doc-Start}{}}
\@writefile{snm}{\beamer@slide {fig:1-4}{24}}
\newlabel{fig:5-8}{{8}{24}{}{Doc-Start}{}}
\@writefile{snm}{\beamer@slide {fig:5-8}{24}}
\newlabel{fig:validation-points}{{9}{24}{}{Doc-Start}{}}
\@writefile{snm}{\beamer@slide {fig:validation-points}{24}}
\@writefile{nav}{\headcommand {\slideentry {0}{0}{10}{24/24}{}{0}}}
\@writefile{nav}{\headcommand {\beamer@framepages {24}{24}}}
\newlabel{fig:geometry}{{10}{25}{}{Doc-Start}{}}
\@writefile{snm}{\beamer@slide {fig:geometry}{25}}
\@writefile{nav}{\headcommand {\slideentry {0}{0}{11}{25/25}{}{0}}}
\@writefile{nav}{\headcommand {\beamer@framepages {25}{25}}}
\newlabel{fig:response}{{11}{26}{}{Doc-Start}{}}
\@writefile{snm}{\beamer@slide {fig:response}{26}}
\@writefile{nav}{\headcommand {\slideentry {0}{0}{12}{26/26}{}{0}}}
\@writefile{nav}{\headcommand {\beamer@framepages {26}{26}}}
\newlabel{fig:transient-area}{{12}{27}{}{Doc-Start}{}}
\@writefile{snm}{\beamer@slide {fig:transient-area}{27}}
\@writefile{nav}{\headcommand {\slideentry {0}{0}{13}{27/27}{}{0}}}
\@writefile{nav}{\headcommand {\beamer@framepages {27}{27}}}
\newlabel{fig:response-comparison}{{13}{28}{}{Doc-Start}{}}
\@writefile{snm}{\beamer@slide {fig:response-comparison}{28}}
\@writefile{nav}{\headcommand {\slideentry {0}{0}{14}{28/28}{}{0}}}
\@writefile{nav}{\headcommand {\beamer@framepages {28}{28}}}
\@writefile{nav}{\headcommand {\slideentry {0}{0}{15}{29/39}{}{0}}}
\@writefile{nav}{\headcommand {\beamer@framepages {29}{39}}}
\@writefile{nav}{\headcommand {\slideentry {0}{0}{16}{40/47}{}{0}}}
\@writefile{nav}{\headcommand {\beamer@framepages {40}{47}}}
\@writefile{nav}{\headcommand {\slideentry {0}{0}{17}{48/48}{}{0}}}
\@writefile{nav}{\headcommand {\beamer@framepages {48}{48}}}
\@writefile{nav}{\headcommand {\slideentry {0}{0}{18}{49/49}{}{0}}}
\@writefile{nav}{\headcommand {\beamer@framepages {49}{49}}}
\@writefile{nav}{\headcommand {\slideentry {0}{0}{19}{50/50}{}{0}}}
\@writefile{nav}{\headcommand {\beamer@framepages {50}{50}}}
\bibcite{augier2019shallow}{\hyperlink {beamerbibaugier2019shallow}{1}}
\@writefile{nav}{\headcommand {\beamer@partpages {1}{51}}}
\@writefile{nav}{\headcommand {\beamer@subsectionpages {1}{51}}}
\@writefile{nav}{\headcommand {\beamer@sectionpages {1}{51}}}
\@writefile{nav}{\headcommand {\beamer@documentpages {51}}}
\@writefile{nav}{\headcommand {\gdef \inserttotalframenumber {19}}}
