\headcommand {\slideentry {0}{0}{1}{1/1}{}{0}}
\headcommand {\beamer@framepages {1}{1}}
\headcommand {\slideentry {0}{0}{2}{2/2}{}{0}}
\headcommand {\beamer@framepages {2}{2}}
\headcommand {\slideentry {0}{0}{3}{3/3}{}{0}}
\headcommand {\beamer@framepages {3}{3}}
\headcommand {\slideentry {0}{0}{4}{4/12}{}{0}}
\headcommand {\beamer@framepages {4}{12}}
\headcommand {\slideentry {0}{0}{5}{13/19}{}{0}}
\headcommand {\beamer@framepages {13}{19}}
\headcommand {\slideentry {0}{0}{6}{20/20}{}{0}}
\headcommand {\beamer@framepages {20}{20}}
\headcommand {\slideentry {0}{0}{7}{21/21}{}{0}}
\headcommand {\beamer@framepages {21}{21}}
\headcommand {\slideentry {0}{0}{8}{22/22}{}{0}}
\headcommand {\beamer@framepages {22}{22}}
\headcommand {\slideentry {0}{0}{9}{23/23}{}{0}}
\headcommand {\beamer@framepages {23}{23}}
\headcommand {\slideentry {0}{0}{10}{24/24}{}{0}}
\headcommand {\beamer@framepages {24}{24}}
\headcommand {\slideentry {0}{0}{11}{25/25}{}{0}}
\headcommand {\beamer@framepages {25}{25}}
\headcommand {\slideentry {0}{0}{12}{26/26}{}{0}}
\headcommand {\beamer@framepages {26}{26}}
\headcommand {\slideentry {0}{0}{13}{27/27}{}{0}}
\headcommand {\beamer@framepages {27}{27}}
\headcommand {\slideentry {0}{0}{14}{28/28}{}{0}}
\headcommand {\beamer@framepages {28}{28}}
\headcommand {\slideentry {0}{0}{15}{29/39}{}{0}}
\headcommand {\beamer@framepages {29}{39}}
\headcommand {\slideentry {0}{0}{16}{40/47}{}{0}}
\headcommand {\beamer@framepages {40}{47}}
\headcommand {\slideentry {0}{0}{17}{48/48}{}{0}}
\headcommand {\beamer@framepages {48}{48}}
\headcommand {\slideentry {0}{0}{18}{49/49}{}{0}}
\headcommand {\beamer@framepages {49}{49}}
\headcommand {\slideentry {0}{0}{19}{50/50}{}{0}}
\headcommand {\beamer@framepages {50}{50}}
\headcommand {\beamer@partpages {1}{51}}
\headcommand {\beamer@subsectionpages {1}{51}}
\headcommand {\beamer@sectionpages {1}{51}}
\headcommand {\beamer@documentpages {51}}
\headcommand {\gdef \inserttotalframenumber {19}}
