\relax 
\providecommand*\new@tpo@label[2]{}
\@writefile{toc}{\contentsline {section}{\numberline {1}Problem Statement}{1}}
\@writefile{toc}{\contentsline {section}{\numberline {2}Derivation of Equations}{1}}
\@writefile{toc}{\contentsline {subsection}{\numberline {2.1}Spatial Discretization}{1}}
\@writefile{toc}{\contentsline {section}{\numberline {3}Transient Discretizations}{2}}
\@writefile{toc}{\contentsline {subsection}{\numberline {3.1}Forward Euler Method}{2}}
\citation{ferziger2019}
\citation{lsoda}
\@writefile{toc}{\contentsline {subsection}{\numberline {3.2}Huen's Method}{3}}
\@writefile{toc}{\contentsline {subsection}{\numberline {3.3}Multi step Adams-Bashfort-Moulton Method}{3}}
\@writefile{toc}{\contentsline {section}{\numberline {4}Results}{3}}
\@writefile{toc}{\contentsline {subsection}{\numberline {4.1}Steady State Solutions}{3}}
\@writefile{lof}{\contentsline {figure}{\numberline {1}{\ignorespaces Steady state solutions for the three methods under investigation. Adam's method (left), Euler forward method (center) and Huen's method (right).}}{4}}
\@writefile{lof}{\contentsline {figure}{\numberline {2}{\ignorespaces Comparison of the number of iterations required for the forward Euler and Heun's method to reach steady state. Euler forward (top) and Huen's method (bottom).}}{4}}
\@writefile{toc}{\contentsline {subsection}{\numberline {4.2}Stability Analysis}{4}}
\@writefile{lot}{\contentsline {table}{\numberline {1}{\ignorespaces Number of timesteps required to reach steady state for the Euler forward method and Huen's method. Timesteps that resulted in divergence are denoted as (-).}}{5}}
\@writefile{toc}{\contentsline {section}{\numberline {5}Python Code}{5}}
\@writefile{lol}{\contentsline {lstlisting}{/home/anton/phd\textendash related\textendash code/cfd\textunderscore course/assignment\textunderscore 4/assignment\textunderscore 4.py}{5}}
\bibcite{ferziger2019}{1}
\bibcite{lsoda}{2}
