\relax 
\providecommand*\new@tpo@label[2]{}
\citation{ferziger2019}
\citation{richardson}
\@writefile{toc}{\contentsline {section}{\numberline {1}Problem Statement}{1}}
\@writefile{toc}{\contentsline {section}{\numberline {2}Theory}{1}}
\@writefile{toc}{\contentsline {subsection}{\numberline {2.1}Wall Shear Stress}{1}}
\@writefile{toc}{\contentsline {subsection}{\numberline {2.2}Richardson Extrapolation}{2}}
\@writefile{toc}{\contentsline {section}{\numberline {3}Results}{2}}
\@writefile{toc}{\contentsline {subsection}{\numberline {3.1}Residuals}{2}}
\@writefile{lof}{\contentsline {figure}{\numberline {1}{\ignorespaces Colocated residuals for the three different meshes.}}{3}}
\@writefile{toc}{\contentsline {subsection}{\numberline {3.2}Streamlines}{3}}
\@writefile{toc}{\contentsline {subsection}{\numberline {3.3}Shear Stress}{4}}
\@writefile{lot}{\contentsline {table}{\numberline {1}{\ignorespaces Total shear stress $\tau $ in $Pa$ for the six cases.}}{4}}
\@writefile{toc}{\contentsline {subsection}{\numberline {3.4}Richardson Extrapolation}{4}}
\@writefile{toc}{\contentsline {section}{\numberline {4}Python Code}{4}}
\@writefile{lol}{\contentsline {lstlisting}{/home/anton/phd\textendash related\textendash code/cfd\textunderscore course/assignment\textunderscore 5/assignment\textunderscore 5.py}{4}}
\bibcite{ferziger2019}{1}
\bibcite{richardson}{2}
