\relax 
\providecommand*\new@tpo@label[2]{}
\citation{ferziger2019}
\@writefile{toc}{\contentsline {section}{\numberline {1}Problem statement}{1}}
\@writefile{toc}{\contentsline {section}{\numberline {2}Derivation of Discretization Equations}{1}}
\@writefile{toc}{\contentsline {subsection}{\numberline {2.1}Second Order Central Differencing}{1}}
\@writefile{toc}{\contentsline {subsection}{\numberline {2.2}First Order Upwind Differencing}{3}}
\@writefile{toc}{\contentsline {subsection}{\numberline {2.3}Second Order Upwind}{3}}
\citation{ferziger2019}
\@writefile{toc}{\contentsline {section}{\numberline {3}Exact Solution}{4}}
\@writefile{toc}{\contentsline {section}{\numberline {4}Results}{5}}
\@writefile{toc}{\contentsline {subsection}{\numberline {4.1}Grid Dependence}{5}}
\@writefile{lof}{\contentsline {figure}{\numberline {1}{\ignorespaces Comparison between schemes at 11 nodes and $Pe=50$.}}{5}}
\@writefile{lof}{\contentsline {figure}{\numberline {2}{\ignorespaces Comparison between schemes at 41 nodes and $Pe=50$.}}{6}}
\@writefile{lof}{\contentsline {figure}{\numberline {3}{\ignorespaces Comparison between schemes at 81 nodes and $Pe=50$.}}{6}}
\@writefile{toc}{\contentsline {subsection}{\numberline {4.2}Peclet Number Dependence}{7}}
\@writefile{lof}{\contentsline {figure}{\numberline {4}{\ignorespaces Comparison between schemes at 81 nodes and $Pe=10$.}}{7}}
\@writefile{lof}{\contentsline {figure}{\numberline {5}{\ignorespaces Comparison between schemes at 81 nodes and $Pe=50$.}}{7}}
\@writefile{lof}{\contentsline {figure}{\numberline {6}{\ignorespaces Comparison between schemes at 81 nodes and $Pe=200$.}}{8}}
\@writefile{lof}{\contentsline {figure}{\numberline {7}{\ignorespaces Comparison between schemes at 41 nodes and $Pe=200$.}}{8}}
\@writefile{toc}{\contentsline {section}{\numberline {5}Python Code}{8}}
\@writefile{lol}{\contentsline {lstlisting}{/home/anton/phd\textendash related\textendash code/cfd\textunderscore course/assignment\textunderscore 2/assignment\textunderscore 2.py}{8}}
\bibcite{ferziger2019}{1}
